<?xml version="1.0" encoding="UTF-8" standalone="no"?>
<svg width="64.6289mm" height="80.7156mm"
 xmlns="http://www.w3.org/2000/svg" xmlns:xlink="http://www.w3.org/1999/xlink"  version="1.2" baseProfile="tiny">
<title>Qt SVG Document</title>
<desc>Generated with Qt</desc>
<defs>
</defs>
<g fill="none" stroke="black" stroke-width="1" fill-rule="evenodd" stroke-linecap="square" stroke-linejoin="bevel" >

<g fill="none" stroke="#000000" stroke-opacity="1" stroke-width="3" stroke-linecap="butt" stroke-linejoin="miter" stroke-miterlimit="2" transform="matrix(1,0,0,1,78,131)"
font-family="Noto Sans" font-size="12.5" font-weight="400" font-style="normal" 
>
</g>

<g fill="#7bef49" fill-opacity="0.635294" stroke="#000000" stroke-opacity="1" stroke-width="3" stroke-linecap="butt" stroke-linejoin="miter" stroke-miterlimit="2" transform="matrix(1,0,0,1,78,131)"
font-family="Noto Sans" font-size="12.5" font-weight="400" font-style="normal" 
>
<path vector-effect="none" fill-rule="evenodd" d="M0,0 L24.0488,51.622 L48.1254,-27.0028 L72.1742,24.6191 L55.6942,-51.6127 L18.2051,-48.8307 L1.725,-125.062 L0,0"/>
</g>

<g fill="none" stroke="#000000" stroke-opacity="1" stroke-width="3" stroke-linecap="butt" stroke-linejoin="miter" stroke-miterlimit="2" transform="matrix(1,0,0,1,78,131)"
font-family="Noto Sans" font-size="12.5" font-weight="400" font-style="normal" 
>
</g>

<g fill="#a599df" fill-opacity="0.603922" stroke="#000000" stroke-opacity="1" stroke-width="3" stroke-linecap="butt" stroke-linejoin="miter" stroke-miterlimit="2" transform="matrix(-0.99962,-0.027581,-0.027581,0.99962,78,131)"
font-family="Noto Sans" font-size="12.5" font-weight="400" font-style="normal" 
>
<path vector-effect="none" fill-rule="evenodd" d="M0,0 L24.0488,51.622 L48.1254,-27.0028 L72.1742,24.6191 L55.6942,-51.6127 L18.2051,-48.8307 L1.725,-125.062 L0,0"/>
</g>

<g fill="none" stroke="#000000" stroke-opacity="1" stroke-width="3" stroke-linecap="butt" stroke-linejoin="miter" stroke-miterlimit="2" transform="matrix(1,0,0,1,78,131)"
font-family="Noto Sans" font-size="12.5" font-weight="400" font-style="normal" 
>
</g>

<g fill="#d8db0d" fill-opacity="0.690196" stroke="#000000" stroke-opacity="1" stroke-width="3" stroke-linecap="butt" stroke-linejoin="miter" stroke-miterlimit="2" transform="matrix(-1,0,0,-1,150.174,155.619)"
font-family="Noto Sans" font-size="12.5" font-weight="400" font-style="normal" 
>
<path vector-effect="none" fill-rule="evenodd" d="M0,0 L24.0488,51.622 L48.1254,-27.0028 L72.1742,24.6191 L55.6942,-51.6127 L18.2051,-48.8307 L1.725,-125.062 L0,0"/>
</g>

<g fill="none" stroke="#000000" stroke-opacity="1" stroke-width="3" stroke-linecap="butt" stroke-linejoin="miter" stroke-miterlimit="2" transform="matrix(1,0,0,1,78,131)"
font-family="Noto Sans" font-size="12.5" font-weight="400" font-style="normal" 
>
</g>

<g fill="#fa2859" fill-opacity="0.788235" stroke="#000000" stroke-opacity="1" stroke-width="3" stroke-linecap="butt" stroke-linejoin="miter" stroke-miterlimit="2" transform="matrix(0.99962,0.027581,0.027581,-0.99962,150.174,155.619)"
font-family="Noto Sans" font-size="12.5" font-weight="400" font-style="normal" 
>
<path vector-effect="none" fill-rule="evenodd" d="M0,0 L24.0488,51.622 L48.1254,-27.0028 L72.1742,24.6191 L55.6942,-51.6127 L18.2051,-48.8307 L1.725,-125.062 L0,0"/>
</g>

<g fill="none" stroke="#000000" stroke-opacity="1" stroke-width="3" stroke-linecap="butt" stroke-linejoin="miter" stroke-miterlimit="2" transform="matrix(1,0,0,1,78,131)"
font-family="Noto Sans" font-size="12.5" font-weight="400" font-style="normal" 
>
</g>
</g>
</svg>
