<?xml version="1.0" encoding="UTF-8" standalone="no"?>
<svg width="59.5489mm" height="54.1867mm"
 xmlns="http://www.w3.org/2000/svg" xmlns:xlink="http://www.w3.org/1999/xlink"  version="1.2" baseProfile="tiny">
<title>Qt SVG Document</title>
<desc>Generated with Qt</desc>
<defs>
</defs>
<g fill="none" stroke="black" stroke-width="1" fill-rule="evenodd" stroke-linecap="square" stroke-linejoin="bevel" >

<g fill="none" stroke="#000000" stroke-opacity="1" stroke-width="3" stroke-linecap="butt" stroke-linejoin="miter" stroke-miterlimit="2" transform="matrix(1,0,0,1,34,166)"
font-family="Noto Sans" font-size="12.5" font-weight="400" font-style="normal" 
>
</g>

<g fill="#ef5bcd" fill-opacity="0.745098" stroke="#000000" stroke-opacity="1" stroke-width="3" stroke-linecap="butt" stroke-linejoin="miter" stroke-miterlimit="2" transform="matrix(1,0,0,1,34,166)"
font-family="Noto Sans" font-size="12.5" font-weight="400" font-style="normal" 
>
<path vector-effect="none" fill-rule="evenodd" d="M0,-160 L12,-124 L-28,-51 L0,0 L105,21 L160,0 L132,-51 L172,-124 L160,-160 L105,-139 L0,-160"/>
</g>

<g fill="none" stroke="#000000" stroke-opacity="1" stroke-width="3" stroke-linecap="butt" stroke-linejoin="miter" stroke-miterlimit="2" transform="matrix(1,0,0,1,34,166)"
font-family="Noto Sans" font-size="12.5" font-weight="400" font-style="normal" 
>
</g>
</g>
</svg>
